…
## group_by

Grouping weather data by name and month. This is different than
mutating.

- you can group by mutliple things

``` r
weather_df|> 
  group_by(name,month)
```

    ## # A tibble: 2,190 × 7
    ## # Groups:   name, month [72]
    ##    name           id          date        prcp  tmax  tmin month     
    ##    <chr>          <chr>       <date>     <dbl> <dbl> <dbl> <date>    
    ##  1 CentralPark_NY USW00094728 2021-01-01   157   4.4   0.6 2021-01-01
    ##  2 CentralPark_NY USW00094728 2021-01-02    13  10.6   2.2 2021-01-01
    ##  3 CentralPark_NY USW00094728 2021-01-03    56   3.3   1.1 2021-01-01
    ##  4 CentralPark_NY USW00094728 2021-01-04     5   6.1   1.7 2021-01-01
    ##  5 CentralPark_NY USW00094728 2021-01-05     0   5.6   2.2 2021-01-01
    ##  6 CentralPark_NY USW00094728 2021-01-06     0   5     1.1 2021-01-01
    ##  7 CentralPark_NY USW00094728 2021-01-07     0   5    -1   2021-01-01
    ##  8 CentralPark_NY USW00094728 2021-01-08     0   2.8  -2.7 2021-01-01
    ##  9 CentralPark_NY USW00094728 2021-01-09     0   2.8  -4.3 2021-01-01
    ## 10 CentralPark_NY USW00094728 2021-01-10     0   5    -1.6 2021-01-01
    ## # ℹ 2,180 more rows
…
``` r
weather_df |>
  group_by(name, month) |>
  summarize(
    mean_tmax = mean(tmax, na.rm = TRUE),
    mean_prec = mean(prcp, na.rm = TRUE),
    median_tmax = median(tmax),
    sd_tmax = sd(tmax))
```

    ## `summarise()` has grouped output by 'name'. You can override using the
    ## `.groups` argument.

    ## # A tibble: 72 × 6
    ## # Groups:   name [3]
    ##    name           month      mean_tmax mean_prec median_tmax sd_tmax
    ##    <chr>          <date>         <dbl>     <dbl>       <dbl>   <dbl>
    ##  1 CentralPark_NY 2021-01-01      4.27      18.9         5      3.34
    ##  2 CentralPark_NY 2021-02-01      3.87      46.6         2.8    3.99
    ##  3 CentralPark_NY 2021-03-01     12.3       28.0        12.2    6.91
    ##  4 CentralPark_NY 2021-04-01     17.6       22.8        18.0    5.26
    ##  5 CentralPark_NY 2021-05-01     22.1       35.7        22.2    5.63
    ##  6 CentralPark_NY 2021-06-01     28.1       22.2        27.8    4.32
    ##  7 CentralPark_NY 2021-07-01     28.4       90.9        28.3    3.17
    ##  8 CentralPark_NY 2021-08-01     28.8       84.5        28.3    2.95
    ##  9 CentralPark_NY 2021-09-01     24.8       84.9        24.4    2.52
    ## 10 CentralPark_NY 2021-10-01     19.9       43.1        20.6    3.66
    ## # ℹ 62 more rows
…
- \*\* do not group_by() permanantly\*\*
- we can also calc center by tmax- mean_tmax
- mutate is part of window functions which if u coonduct a whole
  function on a column it will return a column with the same amount of
  inputs the colomun had in it.

``` r
weather_df |>
  group_by(name) |>
  mutate(
    mean_tmax = mean(tmax, na.rm = TRUE),
    centered_tmax = tmax - mean_tmax)
```

    ## # A tibble: 2,190 × 9
    ## # Groups:   name [3]
    ##    name    id    date        prcp  tmax  tmin month      mean_tmax centered_tmax
    ##    <chr>   <chr> <date>     <dbl> <dbl> <dbl> <date>         <dbl>         <dbl>
    ##  1 Centra… USW0… 2021-01-01   157   4.4   0.6 2021-01-01      17.7        -13.3 
    ##  2 Centra… USW0… 2021-01-02    13  10.6   2.2 2021-01-01      17.7         -7.06
    ##  3 Centra… USW0… 2021-01-03    56   3.3   1.1 2021-01-01      17.7        -14.4 
    ##  4 Centra… USW0… 2021-01-04     5   6.1   1.7 2021-01-01      17.7        -11.6 
    ##  5 Centra… USW0… 2021-01-05     0   5.6   2.2 2021-01-01      17.7        -12.1 
    ##  6 Centra… USW0… 2021-01-06     0   5     1.1 2021-01-01      17.7        -12.7 
    ##  7 Centra… USW0… 2021-01-07     0   5    -1   2021-01-01      17.7        -12.7 
    ##  8 Centra… USW0… 2021-01-08     0   2.8  -2.7 2021-01-01      17.7        -14.9 
    ##  9 Centra… USW0… 2021-01-09     0   2.8  -4.3 2021-01-01      17.7        -14.9 
    ## 10 Centra… USW0… 2021-01-10     0   5    -1.6 2021-01-01      17.7        -12.7 
    ## # ℹ 2,180 more rows
…
We can use the Lad function used to compare an observation to it’s
previous value.

- useful, for example, to find the day-by-day change in max temperature
  within each station over the year

``` r
weather_df |>
  group_by(name) |>
  mutate(temp_change = tmax - lag(tmax))
```

    ## # A tibble: 2,190 × 8
    ## # Groups:   name [3]
    ##    name           id         date        prcp  tmax  tmin month      temp_change
    ##    <chr>          <chr>      <date>     <dbl> <dbl> <dbl> <date>           <dbl>
    ##  1 CentralPark_NY USW000947… 2021-01-01   157   4.4   0.6 2021-01-01      NA    
    ##  2 CentralPark_NY USW000947… 2021-01-02    13  10.6   2.2 2021-01-01       6.2  
    ##  3 CentralPark_NY USW000947… 2021-01-03    56   3.3   1.1 2021-01-01      -7.3  
    ##  4 CentralPark_NY USW000947… 2021-01-04     5   6.1   1.7 2021-01-01       2.8  
    ##  5 CentralPark_NY USW000947… 2021-01-05     0   5.6   2.2 2021-01-01      -0.5  
    ##  6 CentralPark_NY USW000947… 2021-01-06     0   5     1.1 2021-01-01      -0.600
    ##  7 CentralPark_NY USW000947… 2021-01-07     0   5    -1   2021-01-01       0    
    ##  8 CentralPark_NY USW000947… 2021-01-08     0   2.8  -2.7 2021-01-01      -2.2  
    ##  9 CentralPark_NY USW000947… 2021-01-09     0   2.8  -4.3 2021-01-01       0    
    ## 10 CentralPark_NY USW000947… 2021-01-10     0   5    -1.6 2021-01-01       2.2  
    ## # ℹ 2,180 more rows
…
